{
  "project_info": {
    "project_number": "206903215385",
    "firebase_url": "https://elitelux-5032e.firebaseio.com",
    "project_id": "elitelux-5032e",
    "storage_bucket": "elitelux-5032e.appspot.com"
  },
  "client": [
    {
      "client_info": {
        "mobilesdk_app_id": "1:206903215385:android:71103fb594f9304d0cb188",
        "android_client_info": {
          "package_name": "com.elietlux.shopifyapp"
        }
      },
      "oauth_client": [
        {
          "client_id": "206903215385-ghr4g5aupc6bejtr0h7dc4nfc49st5ko.apps.googleusercontent.com",
          "client_type": 1,
          "android_info": {
            "package_name": "com.elietlux.shopifyapp",
            "certificate_hash": "e23802af41673a28acd907f52937041907ad913d"
          }
        },
        {
          "client_id": "206903215385-rq00hkjdsamr6qp0q2k440e4lm7ihnve.apps.googleusercontent.com",
          "client_type": 3
        }
      ],
      "api_key": [
        {
          "current_key": "AIzaSyCeb_DgF6ttV--LKUL2a4EdHP8pRFa6M7Y"
        }
      ],
      "services": {
        "appinvite_service": {
          "other_platform_oauth_client": [
            {
              "client_id": "206903215385-rq00hkjdsamr6qp0q2k440e4lm7ihnve.apps.googleusercontent.com",
              "client_type": 3
            }
          ]
        }
      }
    }
  ],
  "configuration_version": "1"
}